…
<br>

#### Basis-Statistiken

``` r
# Anzahl der Charaktere pro Spezies
starwars %>% 
  filter(!is.na(species)) %>% 
  count(species, sort = TRUE)
```

    ## # A tibble: 37 × 2
    ##    species      n
    ##    <chr>    <int>
    ##  1 Human       35
    ##  2 Droid        6
    ##  3 Gungan       3
    ##  4 Kaminoan     2
    ##  5 Mirialan     2
    ##  6 Twi'lek      2
    ##  7 Wookiee      2
    ##  8 Zabrak       2
    ##  9 Aleena       1
    ## 10 Besalisk     1
    ## # ℹ 27 more rows
…
